[gd_scene load_steps=7 format=3 uid="uid://bkaibl8sk0pqq"]

[ext_resource type="Texture2D" uid="uid://ut7cers0fvkq" path="res://objects/CheeseDummy.png" id="1_de7ul"]
[ext_resource type="Script" path="res://objects/ammo_pickup.gd" id="1_on5io"]

[sub_resource type="CircleShape2D" id="CircleShape2D_s7d3n"]
radius = 17.0

[sub_resource type="Animation" id="Animation_kvuct"]
length = 0.001
tracks/0/type = "value"
tracks/0/imported = false
tracks/0/enabled = true
tracks/0/path = NodePath("Sprite2D:scale")
tracks/0/interp = 1
tracks/0/loop_wrap = true
tracks/0/keys = {
"times": PackedFloat32Array(0),
"transitions": PackedFloat32Array(1),
"update": 0,
"values": [Vector2(1, 1)]
}

[sub_resource type="Animation" id="Animation_2m8ht"]
resource_name = "pulse"
loop_mode = 1
tracks/0/type = "value"
tracks/0/imported = false
tracks/0/enabled = true
tracks/0/path = NodePath("Sprite2D:scale")
tracks/0/interp = 2
tracks/0/loop_wrap = true
tracks/0/keys = {
"times": PackedFloat32Array(0, 0.5, 1),
"transitions": PackedFloat32Array(1, 1, 1),
"update": 0,
"values": [Vector2(1, 1), Vector2(1.05, 1.05), Vector2(1, 1)]
}

[sub_resource type="AnimationLibrary" id="AnimationLibrary_6g5k6"]
_data = {
"RESET": SubResource("Animation_kvuct"),
"pulse": SubResource("Animation_2m8ht")
}

[node name="AmmoPickup" type="Area2D"]
script = ExtResource("1_on5io")
type = 3

[node name="Sprite2D" type="Sprite2D" parent="."]
texture_filter = 1
texture = ExtResource("1_de7ul")

[node name="CollisionShape2D" type="CollisionShape2D" parent="."]
shape = SubResource("CircleShape2D_s7d3n")

[node name="AnimationPlayer" type="AnimationPlayer" parent="."]
libraries = {
"": SubResource("AnimationLibrary_6g5k6")
}
autoplay = "pulse"

[connection signal="body_entered" from="." to="." method="_on_body_entered"]
