[gd_scene load_steps=2 format=3 uid="uid://o8vud8qytd1t"]

[ext_resource type="PackedScene" uid="uid://bkaibl8sk0pqq" path="res://objects/ammo_pickup.tscn" id="1_s1dw0"]

[node name="AmmoPickupNacho" instance=ExtResource("1_s1dw0")]
quantity = 50
