[gd_scene load_steps=4 format=3 uid="uid://bcrtgl3v5ww1t"]

[ext_resource type="Shader" uid="uid://dy7olrri0rm3o" path="res://objects/portal_3d_shader.tres" id="1_y53c7"]

[sub_resource type="ShaderMaterial" id="ShaderMaterial_r75jq"]
render_priority = 0
shader = ExtResource("1_y53c7")
shader_parameter/ColorIntensity = 2.0
shader_parameter/PortalColor = Color(0, 0.392, 1, 1)

[sub_resource type="QuadMesh" id="QuadMesh_a1jtn"]

[node name="Portal3D" type="Node3D"]

[node name="MeshInstance3D" type="MeshInstance3D" parent="."]
transform = Transform3D(2.5, 0, 0, 0, 2.5, 0, 0, 0, 2.5, 0, 0, 0)
material_override = SubResource("ShaderMaterial_r75jq")
mesh = SubResource("QuadMesh_a1jtn")
