[gd_scene load_steps=2 format=3 uid="uid://cqfo82876jel5"]

[sub_resource type="RectangleShape2D" id="RectangleShape2D_i1tf8"]
size = Vector2(20, 3000)

[node name="VerticalWall" type="Area2D" groups=["wall"]]

[node name="CollisionShape2D" type="CollisionShape2D" parent="."]
shape = SubResource("RectangleShape2D_i1tf8")
