[gd_scene load_steps=3 format=3 uid="uid://q3verweva718"]

[ext_resource type="Script" path="res://weapons/pistol.gd" id="1_tmgmw"]
[ext_resource type="Texture2D" uid="uid://dagm4sdyttnri" path="res://assets/kenney_tiny-dungeon/Tiles/tile_0125.png" id="2_xrf05"]

[node name="Pistol" type="Node2D"]
script = ExtResource("1_tmgmw")

[node name="Sprite2D" type="Sprite2D" parent="."]
rotation = 1.5708
texture = ExtResource("2_xrf05")
offset = Vector2(0, -15)

[node name="ShotCooldown" type="Timer" parent="."]
wait_time = 0.35
one_shot = true
