[gd_scene load_steps=3 format=3 uid="uid://dq27htb7841o1"]

[ext_resource type="Script" path="res://weapons/steam_pistol.gd" id="1_q5tkj"]
[ext_resource type="Texture2D" uid="uid://cgby27ocb6a0l" path="res://icon.svg" id="2_i7g7c"]

[node name="SteamPistol" type="Node2D"]
script = ExtResource("1_q5tkj")

[node name="Offset" type="Node2D" parent="."]
position = Vector2(58, 0)

[node name="Sprite2D" type="Sprite2D" parent="Offset"]
scale = Vector2(0.619999, 0.12)
texture = ExtResource("2_i7g7c")

[node name="Sprite2D2" type="Sprite2D" parent="Offset"]
position = Vector2(-28, -15)
rotation = 1.06975
scale = Vector2(0.212206, 0.0839399)
texture = ExtResource("2_i7g7c")

[node name="Sprite2D3" type="Sprite2D" parent="Offset"]
position = Vector2(-7, -15)
rotation = 1.06975
scale = Vector2(0.212206, 0.0839399)
texture = ExtResource("2_i7g7c")

[node name="ShotCooldown" type="Timer" parent="."]
wait_time = 0.45
one_shot = true
