{
	"count": 10,
	"depth": 3,
	"rooms": {
		"Blumenwiese": {
			"weight": 4
		},
		"cemetary": {
			"weight": 4
		},
		"Farm": {
			"weight": 4
		},
		"Giftsee": {
			"weight": 4
		},
		"green land 1": {
			"weight": 4
		},
	}
}
