[gd_scene load_steps=2 format=3 uid="uid://dqoa3ouv6eoyb"]

[ext_resource type="Script" path="res://player/PlayerSpawner.gd" id="1_4io1m"]

[node name="PlayerSpawner" type="Marker2D"]
script = ExtResource("1_4io1m")
