[gd_scene load_steps=2 format=3 uid="uid://bidxfjj1ayfah"]

[ext_resource type="Script" path="res://UI/floating_text.gd" id="1_4jdcl"]

[node name="FloatingText" type="Marker2D"]
scale = Vector2(0.7, 0.7)
script = ExtResource("1_4jdcl")

[node name="Label" type="Label" parent="."]
anchors_preset = 8
anchor_left = 0.5
anchor_top = 0.5
anchor_right = 0.5
anchor_bottom = 0.5
offset_left = -50.0
offset_top = -12.5
offset_right = 50.0
offset_bottom = 12.5
grow_horizontal = 2
grow_vertical = 2
size_flags_horizontal = 4
theme_override_colors/font_color = Color(1, 0.192157, 0.192157, 1)
theme_override_colors/font_outline_color = Color(0, 0, 0, 1)
theme_override_constants/outline_size = 1
theme_override_font_sizes/font_size = 12
text = "200"
horizontal_alignment = 1
vertical_alignment = 1
